{
  "level": 3,
  "whether": "rain",
  "monsters": [
    {
      "type": "zombie",
      "x": 720,
      "y": 1885,
      "damage": 2,
      "speed": 1,
      "health": 2
    },
    {
      "type": "vampire",
      "x": 450,
      "y": 655,
      "damage": 1,
      "speed": 3,
      "health": 1
    },
    {
      "type": "zombie",
      "x": 780,
      "y": 675,
      "damage": 2,
      "speed": 1,
      "health": 3
    },
    {
      "type": "ghost",
      "x": 780,
      "y": 695,
      "damage": 2,
      "speed": 1,
      "health": 2
    },
    {
      "type": "robot",
      "x": 900,
      "y": 1100,
      "damage": 2,
      "speed": 4,
      "health": 2
    }
  ],
  "objects": [
    {
      "type": "crucifix",
      "x": 690,
      "y": 780,
      "script": null,
      "properties": {}
    },
    {
      "type": "crucifix",
      "x": 780,
      "y": 780,
      "script": null,
      "properties": {}
    },
    {
      "type": "crucifix",
      "x": 870,
      "y": 780,
      "script": null,
      "properties": {}
    },
    {
      "type": "grave",
      "x": 1280,
      "y": 780,
      "script": null,
      "properties": {}
    },
    {
      "type": "grave",
      "x": 1390,
      "y": 780,
      "script": null,
      "properties": {}
    },
    {
      "type": "grave",
      "x": 1500,
      "y": 780,
      "script": null,
      "properties": {}
    },
    {
      "type": "torch",
      "x": 1905,
      "y": 1035,
      "script": null,
      "properties": {}
    },
    {
      "type": "torch",
      "x": 1905,
      "y": 810,
      "script": null,
      "properties": {}
    },
    {
      "type": "torch",
      "x": 1680,
      "y": 810,
      "script": null,
      "properties": {}
    },
    {
      "type": "torch",
      "x": 1680,
      "y": 1045,
      "script": null,
			"properties": {}
		},
		{
			"type": "torch",
			"x": 1215,
			"y": 810,
			"script": null,
			"properties": {}
		},
		{
			"type": "torch",
			"x": 1215,
			"y": 1045,
			"script": null,
			"properties": {}
		},
		{
			"type": "torch",
			"x": 980,
			"y": 810,
			"script": null,
			"properties": {}
		},
		{
			"type": "torch",
			"x": 980,
			"y": 1045,
			"script": null,
			"properties": {}
		},
		{
			"type": "torch",
			"x": 610,
			"y": 810,
			"script": null,
			"properties": {}
		},
		{
			"type": "torch",
			"x": 610,
			"y": 1045,
			"script": null,
			"properties": {}
		},
		{
			"type": "torch",
			"x": 355,
			"y": 810,
			"script": null,
			"properties": {}
		},
		{
			"type": "torch",
			"x": 355,
			"y": 1045,
			"script": null,
			"properties": {}
		},
		{
			"type": "torch",
			"x": 15,
			"y": 810,
			"script": null,
			"properties": {}
		},
		{
			"type": "torch",
			"x": 15,
			"y": 1045,
			"script": null,
			"properties": {}
		}
	],
	"items": [
		{
			"type": "explosion",
			"x": 780,
			"y": 200
		},
		{
			"type": "speed",
			"x": 100,
			"y": 780
		},
		{
			"type": "coin",
			"x": 50,
			"y": 1000
		},
		{
			"type": "coin",
			"x": 1100,
			"y": 1000
		},
		{
			"type": "coin",
			"x": 1900,
			"y": 1900
		}
	],
	"persons": [],
	"player": {
		"x": 456,
		"y": 734
	}
}