{
  "level": 5,
  "whether": null,
  "monsters": [
    {
      "type": "waterboss",
      "x": 1875,
      "y": 675,
      "damage": 3,
      "speed": 4,
      "health": 10
    },
    {
      "type": "lavaboss",
      "x": 0,
      "y": 675,
      "damage": 3,
      "speed": 4,
      "health": 10
    }
  ],
  "objects": [
    {
      "type": "water",
      "x": 0,
      "y": 0,
      "script": null,
      "properties": {}
    },
    {
      "type": "water",
      "x": 0,
      "y": 1840,
      "script": null,
      "properties": {}
    },
    {
      "type": "lava",
      "x": 1680,
      "y": 0,
      "script": null,
      "properties": {}
    },
    {
      "type": "lava",
      "x": 1680,
      "y": 1840,
      "type": "lava",
      "script": null,
      "properties": {}
    },
    {
      "type": "stone",
      "x": 1200,
      "y": 1000,
      "script": null,
      "properties": {}
    }
  ],
  "items": [
    {
      "type": "health",
      "x": 700,
      "y": 300
    },
    {
      "type": "damage",
      "x": 600,
      "y": 400
    },
    {
      "type": "coin",
      "x": 54,
      "y": 1300
    },
    {
      "type": "coin",
      "x": 900,
      "y": 1500
    },
    {
      "type": "coin",
      "x": 1200,
      "y": 1930
    },
    {
      "type": "coin",
      "x": 900,
      "y": 1400
    }
  ],
  "persons": [],
  "player": {
    "x": 456,
    "y": 734
  }
}