{
  "level": 0,
  "whether": null,
  "monsters": [],
  "coins": [],
  "objects": [
    {
      "type": "upgradeshop",
      "x": 500,
      "y": 1600,
      "script": "goto",
      "properties": {
        "map": "peaceful.upgradeshop",
        "key": null
      }
    },
    {
      "type": "home",
      "x": 1500,
      "y": 1600,
      "script": "goto",
      "properties": {
        "map": "peaceful.home",
        "key": null
      }
    },
    {
      "type": "club",
      "x": 1400,
      "y": 600,
      "script": "goto",
      "properties": {
        "map": "peaceful.club",
        "key": "club key"
      }
    },
    {
      "type": "furniturestore",
      "x": 320,
      "y": 650,
      "script": "goto",
      "properties": {
        "map": "peaceful.furniturestore",
        "key": null
      }
    },
    {
      "type": "teleporter1",
      "x": 3,
      "y": 1210,
      "script": "goto",
      "properties": {
        "map": "survival.desert",
        "key": null
      }
    },
    {
      "type": "teleporter2",
      "x": 2452,
      "y": 1210,
      "script": "goto",
      "properties": {
        "map": "arena.darkness",
        "key": null
      }
    }
  ],
  "items": [],
  "persons": [
    {
      "type": null,
      "x": 940,
      "y": 1400,
      "script": "gender",
      "properties": {}
    },
    {
      "type": "villager",
      "x": 1600,
      "y": 1400,
      "script": "credits",
      "properties": {}
    },
    {
      "type": "villager",
      "x": 1000,
      "y": 2000,
      "script": "quiz",
      "properties": {}
    },
    {
      "type": "villager",
      "x": 800,
      "y": 1300,
      "script": "lottery",
      "properties": {}
    },
    {
      "type": "villager",
      "x": 1400,
      "y": 2150,
      "script": "multiplayer",
      "properties": {}
    }
  ],
  "player": {
    "x": 1230,
    "y": 1900
  }
}